…
**Step 4: Analyze the results.** The collect\_metrics() function collapses the results into a tidy data frame, showing the mean performance for each hyperparameter value across all 10 folds.

R

collect\_metrics(knn\_tuning\_results)

\#\# \# A tibble: 30 × 6  
\#\#    neighbors.metric .estimator  mean     n std\_err  
\#\#        \<int\> \<chr\>    \<chr\>      \<dbl\> \<int\>   \<dbl\>  
\#\#  1         1 accuracy binary     0.871    10  0.0125  
\#\#  2         1 roc\_auc  binary     0.781    10  0.0270  
\#\#  3         3 accuracy binary     0.869    10  0.0105  
\#\#  4         3 roc\_auc  binary     0.803    10  0.0240  
\#\#  5         5 accuracy binary     0.870    10  0.0101  
\#\#  6         5 roc\_auc  binary     0.814    10  0.0211  
\#\#  7         7 accuracy binary     0.869    10  0.0093  
\#\#  8         7 roc\_auc  binary     0.822    10  0.0202  
\#\#  9         9 accuracy binary     0.868    10  0.0089  
\#\# 10         9 roc\_auc  binary     0.829    10  0.0194  
\#\# \# ℹ 20 more rows
…
